131.16,130.884
1.70944,-0.606741
-0.487378,5.08358
-1.30881,-2.05258
4.52985,-14.4109
-2.25765,0.45869
1.30267,8.83688
3.82436,7.26585
2.98356,0.508593
-8.84978,-0.315021
-1.52398,2.68454
-9.84574,8.98877
2.02188,-5.0452
-1.87531,-4.55392
-4.96514,-2.03691
0.612908,-5.15692
-1.09768,-2.29006
-3.19636,4.20021
5.99343,11.9728
6.17231,-2.00031
1.6095,-7.90293
-0.0703628,-5.03801
2.9882,-0.690235
1.08969,-6.94352
2.70089,9.87577
-0.622157,0.917843
8.72128,3.09537
6.10217e-05,7.09963
-4.65267,2.23773
-3.27854,0.15693
2.42701,-2.30066
-3.58644,6.02519
-3.4736,1.22482
2.20999,-0.0499334
-1.93724,2.05085
3.05872,3.17507
-1.56231,-3.15377
-0.552714,1.22647
1.40165,3.28336
1.31098,1.57808
5.55859,-1.93628
0.83232,5.22658
2.56929,3.42998
-6.18253,6.16596
-7.58999,2.40387
-4.05988,2.70948
1.65844,1.565
-2.49137,10.2794
1.44169,2.5617
5.80569,-1.3685
-2.17408,4.70429
-1.25846,-5.49457
0.514796,5.48675
-4.31927,-6.31006
-1.67991,-7.86054
-4.99297,-3.03811
-0.976272,-1.12292
-6.88415,-0.234313
-4.09764,1.16718
-6.66023,2.8143
4.07102,2.62095
10.8853,-6.55954
-1.2581,8.53414
1.4738,0.0801339
0.830882,7.4372
7.40883,-1.98959
-6.89574,-0.475659
-1.4974,6.61017
10.0514,5.95881
4.95795,1.46423
-8.61862,-3.77278
1.24189,-3.34895
-2.61437,1.07405
-4.18645,-0.50269
1.23722,7.79757
3.00714,-5.26159
0.149061,-2.64047
6.44447,3.55938
-2.03516,9.87589
-1.63911,3.06721
2.03881,-0.726645
-2.73971,2.01894
-0.88766,-3.15788
4.09777,-6.01617
-3.76282,-4.76118
-3.30453,-5.06985
-0.3455,-3.83276
3.31169,3.49336
-1.04629,-2.68889
-1.37557,0.799966
7.62004,-1.26612
-3.12122,-3.83225
8.4869,12.4721
2.11794,5.42422
-0.140341,0.0514462
0.596868,-1.80126
-5.45423,-4.54743
-5.56314,-7.84469
1.38235,1.38443
-6.29755,-2.87498
0.79911,1.62593
2.36809,2.32015
-1.3843,-3.77643
-7.25296,4.28843
0.247756,1.84939
3.10396,4.8844
-8.35004,6.58534
-0.574978,-6.41993
-0.326142,-9.65242
-1.25073,12.0258
-1.49125,1.46869
1.61695,0.0255958
-5.44109,-1.43703
-2.13402,-4.70086
-3.55741,2.45374
-3.92138,1.35418
4.95458,4.16837
-0.630044,-4.85421
2.9427,-5.29638
3.34957,4.05753
3.26094,4.09394
2.99667,-4.94987
3.55108,0.614438
-0.265011,4.41182
-5.99876,2.00379
1.9449,0.515876
-0.000415456,3.63478
-1.75297,3.02131
3.29072,0.609726
-0.776726,-5.66309
-6.86405,-3.05043
-2.76516,-0.859981
11.2791,4.474
2.26281,0.796571
-1.1094,-1.88633
0.6179,-2.82843
8.79012,-3.34523
2.58139,1.35116
-0.783904,3.78123
3.37733,4.09583
-4.06223,5.82914
2.58568,-2.42871
-2.58479,-9.55609
5.09239,-7.74293
-2.47593,3.76034
2.24377,-5.03913
-13.6763,2.19762
-1.66171,5.27555
4.15885,3.79997
3.536,-0.911777
-2.77614,-1.69405
-4.62256,-0.375364
-4.26184,8.52395
0.765915,1.58892
10.5173,-0.910363
-5.06032,-4.87864
3.94894,-6.81881
8.56815,10.6721
7.44364,0.510194
-2.35741,-2.10009
-2.09359,1.84219
-7.11597,-3.13412
-0.825759,-7.15932
3.64107,1.87554
-9.54918,-4.22727
-0.198091,11.996
-1.84972,-3.30308
-1.19647,2.95632
-4.49291,0.979023
6.82288,4.25908
-6.93045,-6.07172
6.55898,4.46593
-4.50747,-0.420573
-0.8647,-7.83502
2.33429,0.444522
-9.27685,-4.75646
-4.88351,-3.04911
-4.09085,-5.50178
4.65056,-2.38201
5.6331,4.0519
-6.5814,-9.38297
-5.72887,-3.49365
-1.92932,-3.47373
0.674273,2.47299
4.49209,5.78323
-8.26166,-7.81593
8.34768,4.5247
-1.42613,10.7542
-10.3644,-3.89341
-0.441897,3.47823
-3.94708,2.47693
-0.10023,5.85084
4.78479,-6.35258
2.7633,0.0965018
0.277322,-5.2233
2.40172,-0.581359
-1.2273,-6.03198
0.657227,0.444172
1.21615,8.04838
-1.76408,-2.87851
-1.26074,-5.32256
-1.27451,1.69772
-7.50192,-9.0737
-2.39856,-6.1465
-3.86123,-4.59495
5.20796,-4.55187
4.10776,-2.87058
-4.34173,-4.33192
5.91421,-3.4226
-4.97496,6.09877
-8.66483,4.39932
-1.03062,-0.7429
-2.42086,-3.79249
-0.637108,-0.0093367
-0.868493,-2.97675
-5.28233,7.30113
0.309024,-6.16049
5.49725,-0.691976
1.94009,5.10099
3.49802,1.69204
-5.94527,-1.49859
3.59107,3.25273
2.05507,-0.349988
-5.75724,-5.18575
0.453749,7.74357
2.06692,-4.43211
-7.16359,-1.73005
0.171633,1.3417
-2.84546,6.20246
3.39056,-3.33147
-8.15391,-0.199662
-2.39885,-3.47812
-5.53131,5.67635
0.686261,-0.0606515
-1.80698,3.41294
4.11632,2.01995
-1.63078,-3.27009
0.956335,-9.39201
-2.54732,3.38943
1.99995,3.02365
-1.32596,1.16753
-5.30012,-3.99993
-2.79805,7.41056
-0.315058,-8.51621
3.44347,6.66125
3.69836,3.11493
-1.26602,6.1183
-2.85081,1.95513
-9.84564,7.79198
14.5538,1.65197
6.36363,4.77187
1.67541,1.83472
-2.67768,0.649579
-4.22988,-5.57643
-3.13161,-4.98571
6.11376,5.67851
0.487395,0.512398
0.494625,0.500622
0.493004,0.498419
0.531916,0.517668
0.465434,0.47259
0.499193,0.492253
0.495078,0.526035
0.494661,0.495972
0.519985,0.523317
0.499341,0.498856
0.501643,0.504781
0.494248,0.498282
0.530445,0.487333
0.495558,0.479906
0.462408,0.480068
0.4921,0.487978
0.505113,0.527236
0.500051,0.527687
0.50286,0.505118
0.492614,0.487033
0.479635,0.477497
0.528933,0.488391
0.490675,0.52378
0.504089,0.490075
0.52481,0.520247
0.496755,0.505084
0.516184,0.51115
0.495764,0.503451
0.508315,0.486052
0.509475,0.466926
0.505659,0.504827
0.518908,0.521791
0.489232,0.486727
0.497267,0.513078
0.51818,0.518971
0.491978,0.485036
0.546174,0.528621
0.507496,0.517074
0.495641,0.509147
0.517026,0.508909
0.499942,0.477456
0.517212,0.481356
0.501033,0.524673
0.520321,0.498195
0.507274,0.476299
0.495653,0.529459
0.523123,0.525022
0.506257,0.498304
0.510065,0.472904
0.474557,0.488043
0.480369,0.477477
0.506572,0.507771
0.50099,0.485336
0.501289,0.472832
0.474822,0.474325
0.510037,0.470444
0.511788,0.465256
0.490398,0.482359
0.526501,0.510194
0.489795,0.486421
0.480447,0.50495
0.52831,0.460473
0.487457,0.482057
0.547898,0.515173
0.505111,0.485765
0.502233,0.495553
0.490991,0.53298
0.512958,0.512269
0.500332,0.496079
0.459529,0.523634
0.521966,0.520874
0.522183,0.484054
0.509566,0.499272
0.513969,0.523719
0.514464,0.51068
0.505749,0.518909
0.494239,0.501692
0.494165,0.506063
0.500223,0.485308
0.530549,0.470837
0.513434,0.509685
0.502169,0.48092
0.499264,0.486262
0.491604,0.494623
0.516856,0.459288
0.48378,0.474167
0.488636,0.515983
0.50659,0.475521
0.501089,0.485754
0.501988,0.523405
0.464922,0.506601
0.490056,0.486286
0.521308,0.470431
0.494781,0.490447
0.514547,0.495713
0.512805,0.525451
0.515501,0.482166
0.48999,0.506643
0.48175,0.474041
0.520636,0.470459
0.491969,0.511682
0.492011,0.500214
0.49202,0.502621
0.510132,0.495626
0.490263,0.526265
0.477893,0.512665
0.522406,0.494051
0.497406,0.486206
0.49134,0.501011
0.495001,0.499563
0.499178,0.489834
0.494665,0.503234
0.530845,0.485238
0.496947,0.486785
0.473607,0.496318
0.533647,0.525715
0.492077,0.528261
0.503751,0.492399
0.489148,0.496413
0.493747,0.462338
0.508338,0.495804
0.504183,0.499314
0.518947,0.496466
0.512172,0.479609
0.505898,0.519213
0.514356,0.494347
0.493179,0.475483
0.519097,0.517468
0.496964,0.538432
0.499602,0.456503
0.467021,0.506216
0.491574,0.504139
0.521086,0.52465
0.495565,0.489784
0.468303,0.516889
0.476966,0.488937
0.512346,0.523278
0.50664,0.514601
0.505327,0.498223
0.510917,0.509461
0.479045,0.489882
0.521597,0.478707
0.508269,0.503442
0.492353,0.490027
0.503703,0.489404
0.466704,0.482202
0.501054,0.464675
0.531137,0.499482
0.524308,0.528192
0.506514,0.472838
0.460734,0.517174
0.534008,0.493393
0.490567,0.530561
0.485264,0.4804
0.497171,0.503227
0.485829,0.513264
0.477187,0.498954
0.501098,0.495612
0.493666,0.515117
0.512088,0.506849
0.488563,0.513936
0.50763,0.497476
0.478051,0.508411
0.499992,0.49612
0.509557,0.488106
0.474099,0.504061
0.532847,0.485551
0.489092,0.495237
0.493783,0.494217
0.510367,0.48265
0.482759,0.527103
0.518939,0.494924
0.496417,0.483929
0.519266,0.494279
0.51187,0.475352
0.484552,0.485902
0.529667,0.510466
0.524723,0.49842
0.507387,0.496802
0.495795,0.482333
0.476831,0.494236
0.495975,0.493609
0.516673,0.461082
0.490656,0.502282
0.49465,0.504089
0.484292,0.517444
0.497248,0.491726
0.477435,0.48569
0.521111,0.526839
0.517507,0.474709
0.476944,0.50524
0.480058,0.544375
0.505922,0.478992
0.517982,0.504564
0.495312,0.511877
0.534171,0.536246
0.48082,0.503614
0.478393,0.511796
0.502058,0.517984
0.515261,0.487183
0.500981,0.501583
0.492979,0.506657
0.493764,0.494753
0.482409,0.520719
0.512206,0.479247
0.511446,0.495496
0.486544,0.464157
0.514231,0.494767
0.51889,0.50936
0.514752,0.508097
0.512137,0.510668
0.517463,0.493797
0.486365,0.508426
0.483853,0.503933
0.488999,0.492197
0.516032,0.500721
0.489338,0.490605
0.536426,0.477633
0.480118,0.512746
0.490895,0.494543
0.469702,0.497401
0.516708,0.486326
0.470358,0.504446
0.477695,0.477703
0.486541,0.511725
0.487688,0.497298
0.487551,0.489269
0.480829,0.530768
0.481749,0.461798
0.508448,0.497364
0.477498,0.489187
0.489064,0.468679
0.514408,0.502406
0.520883,0.485059
0.475842,0.506643
0.538047,0.512629
0.483443,0.507085
0.505949,0.486264
0.514323,0.501108
0.483733,0.489277
0.541687,0.509525
0.51101,0.499512
0.491866,0.471117
0.467236,0.510439
0.49041,0.523886
0.501398,0.515526
0.490991,0.493332
0.516388,0.516057
0.486348,0.509642
0.489319,0.501592
0.496561,0.53113
0.506678,0.528103
0.522179,0.469234
0.498701,0.518745
0.489533,0.512735
0.504999,0.498238
