ID:  0 , Train Error:  1.07503981597e-14
ID:  0 , Test Error:  0.774296961354
ID:  1 , Train Error:  2.16275228172e-14
ID:  1 , Test Error:  0.762956641821
ID:  2 , Train Error:  5.53373343902e-14
ID:  2 , Test Error:  1.32593442652
ID:  3 , Train Error:  4.2030826353e-14
ID:  3 , Test Error:  1.21369652694
ID:  4 , Train Error:  3.58829759125e-14
ID:  4 , Test Error:  1.32608939491
ID:  5 , Train Error:  4.54460963364e-14
ID:  5 , Test Error:  1.14629856932
ID:  6 , Train Error:  4.69542150792e-14
ID:  6 , Test Error:  1.1790215836
ID:  7 , Train Error:  4.49671015887e-15
ID:  7 , Test Error:  1.23063453633
ID:  8 , Train Error:  7.15805533012e-14
ID:  8 , Test Error:  1.31302476905
ID:  9 , Train Error:  4.39651169148e-14
ID:  9 , Test Error:  1.23418174981
ID:  10 , Train Error:  3.07029169104e-14
ID:  10 , Test Error:  1.0881976703
ID:  11 , Train Error:  4.05494025176e-14
ID:  11 , Test Error:  1.09724466525
ID:  12 , Train Error:  7.00730361189e-14
ID:  12 , Test Error:  1.09721165238
ID:  13 , Train Error:  1.51532605685e-14
ID:  13 , Test Error:  1.13451358866
ID:  14 , Train Error:  1.21333806043e-14
ID:  14 , Test Error:  1.09267636806
ID:  15 , Train Error:  1.0187255731e-14
ID:  15 , Test Error:  1.3206311505
ID:  16 , Train Error:  4.04212453003e-14
ID:  16 , Test Error:  1.03305318806
ID:  17 , Train Error:  1.21308859031e-14
ID:  17 , Test Error:  1.31423509076
ID:  18 , Train Error:  6.08673129422e-14
ID:  18 , Test Error:  1.23095597995
ID:  19 , Train Error:  1.63046721134e-14
ID:  19 , Test Error:  1.32959098548
ID:  20 , Train Error:  1.34624136938e-14
ID:  20 , Test Error:  1.11650211197
ID:  21 , Train Error:  3.48861355629e-14
ID:  21 , Test Error:  1.16614588282
ID:  22 , Train Error:  3.01265635937e-14
ID:  22 , Test Error:  1.07222747507
ID:  23 , Train Error:  1.6590097079e-14
ID:  23 , Test Error:  1.33089142444
ID:  24 , Train Error:  2.11167555082e-14
ID:  24 , Test Error:  1.25587473808
ID:  25 , Train Error:  1.79141617883e-14
ID:  25 , Test Error:  1.36191306795
ID:  26 , Train Error:  3.54269887645e-14
ID:  26 , Test Error:  1.33355203215
ID:  27 , Train Error:  3.16890756982e-14
ID:  27 , Test Error:  1.14900246583
ID:  28 , Train Error:  4.63566065601e-14
ID:  28 , Test Error:  1.33548188687
ID:  29 , Train Error:  3.87387554052e-14
ID:  29 , Test Error:  1.24538653814
ID:  30 , Train Error:  5.09808402375e-14
ID:  30 , Test Error:  1.18013152959
ID:  31 , Train Error:  3.65848675078e-14
ID:  31 , Test Error:  1.3463135766
ID:  32 , Train Error:  4.98977748792e-14
ID:  32 , Test Error:  1.08025249048
ID:  33 , Train Error:  1.31759453034e-14
ID:  33 , Test Error:  1.20627270621
ID:  34 , Train Error:  7.69110828674e-14
ID:  34 , Test Error:  1.13110903875
ID:  35 , Train Error:  4.17101150388e-14
ID:  35 , Test Error:  1.19338593493
ID:  36 , Train Error:  6.06085712171e-14
ID:  36 , Test Error:  1.11777388177
ID:  37 , Train Error:  2.535620223e-14
ID:  37 , Test Error:  1.07340244012
ID:  38 , Train Error:  1.83617186978e-14
ID:  38 , Test Error:  1.12664803933
ID:  39 , Train Error:  7.14919801246e-14
ID:  39 , Test Error:  1.08156685977
ID:  40 , Train Error:  2.57021247847e-14
ID:  40 , Test Error:  1.3128521252
ID:  41 , Train Error:  1.24720920835e-14
ID:  41 , Test Error:  1.2918250259
ID:  42 , Train Error:  1.00742722163e-14
ID:  42 , Test Error:  1.20625137886
ID:  43 , Train Error:  2.44936356859e-14
ID:  43 , Test Error:  1.12493924872
ID:  44 , Train Error:  2.28580532459e-14
ID:  44 , Test Error:  1.13568933994
ID:  45 , Train Error:  2.12010171615e-14
ID:  45 , Test Error:  1.1326542628
ID:  46 , Train Error:  7.37716214552e-14
ID:  46 , Test Error:  1.19153214256
ID:  47 , Train Error:  3.03561599825e-14
ID:  47 , Test Error:  1.14724187284
ID:  48 , Train Error:  2.22255293964e-14
ID:  48 , Test Error:  1.37539466903
ID:  49 , Train Error:  4.24992454771e-14
ID:  49 , Test Error:  1.34830870636
ID:  50 , Train Error:  1.66757723982e-14
ID:  50 , Test Error:  1.14768690006
ID:  51 , Train Error:  2.2315675893e-14
ID:  51 , Test Error:  1.22982209865
ID:  52 , Train Error:  1.02798837794e-14
ID:  52 , Test Error:  1.12566656538
ID:  53 , Train Error:  2.28951119556e-14
ID:  53 , Test Error:  1.19991967916
ID:  54 , Train Error:  6.03231723985e-14
ID:  54 , Test Error:  1.28058179031
ID:  55 , Train Error:  1.05185398051e-14
ID:  55 , Test Error:  1.2713932551
ID:  56 , Train Error:  2.50424163076e-14
ID:  56 , Test Error:  1.09186339708
ID:  57 , Train Error:  3.23185638995e-14
ID:  57 , Test Error:  1.29151247417
ID:  58 , Train Error:  9.17307724003e-14
ID:  58 , Test Error:  1.15636089582
ID:  59 , Train Error:  1.95874573183e-14
ID:  59 , Test Error:  1.13438157372
ID:  60 , Train Error:  1.51816638603e-14
ID:  60 , Test Error:  1.24811749145
ID:  61 , Train Error:  1.91672450665e-14
ID:  61 , Test Error:  1.23415889867
ID:  62 , Train Error:  2.0357826683e-14
ID:  62 , Test Error:  1.29874792001
ID:  63 , Train Error:  2.4224361802e-14
ID:  63 , Test Error:  1.22079918258
ID:  64 , Train Error:  1.69000714852e-14
ID:  64 , Test Error:  1.35067356198
ID:  65 , Train Error:  2.79999711347e-14
ID:  65 , Test Error:  1.01403795781
ID:  66 , Train Error:  6.2158570006e-14
ID:  66 , Test Error:  1.108074784
ID:  67 , Train Error:  4.28299646507e-14
ID:  67 , Test Error:  1.18212702174
ID:  68 , Train Error:  4.55955050926e-14
ID:  68 , Test Error:  1.31687707935
ID:  69 , Train Error:  9.33892984836e-15
ID:  69 , Test Error:  1.221985351
ID:  70 , Train Error:  1.30310932816e-14
ID:  70 , Test Error:  1.1645412761
ID:  71 , Train Error:  8.89230836668e-15
ID:  71 , Test Error:  1.27490297966
ID:  72 , Train Error:  2.89405240428e-14
ID:  72 , Test Error:  1.26841094758
ID:  73 , Train Error:  4.60430258787e-14
ID:  73 , Test Error:  1.14201143346
ID:  74 , Train Error:  4.6480371667e-14
ID:  74 , Test Error:  1.29902326117
ID:  75 , Train Error:  1.39753890044e-14
ID:  75 , Test Error:  1.0850879949
ID:  76 , Train Error:  7.6614182808e-14
ID:  76 , Test Error:  1.12114423769
ID:  77 , Train Error:  3.17812352024e-14
ID:  77 , Test Error:  1.30674050865
ID:  78 , Train Error:  1.44054449929e-14
ID:  78 , Test Error:  1.23865694386
ID:  79 , Train Error:  7.39315668151e-14
ID:  79 , Test Error:  1.19000105621
ID:  80 , Train Error:  3.77190493264e-14
ID:  80 , Test Error:  1.02510475593
ID:  81 , Train Error:  7.1468704529e-14
ID:  81 , Test Error:  1.21711243492
ID:  82 , Train Error:  7.6157031413e-14
ID:  82 , Test Error:  1.26870550377
ID:  83 , Train Error:  3.37095047174e-14
ID:  83 , Test Error:  1.36376513506
ID:  84 , Train Error:  3.38793225778e-14
ID:  84 , Test Error:  1.18984593722
ID:  85 , Train Error:  6.50491545451e-14
ID:  85 , Test Error:  1.30246512121
ID:  86 , Train Error:  6.90143971987e-15
ID:  86 , Test Error:  1.23678761759
ID:  87 , Train Error:  5.66269567998e-14
ID:  87 , Test Error:  1.19605060963
ID:  88 , Train Error:  3.21773420505e-14
ID:  88 , Test Error:  1.204284334
ID:  89 , Train Error:  5.4677885913e-14
ID:  89 , Test Error:  1.0640782655
ID:  90 , Train Error:  1.94381758582e-14
ID:  90 , Test Error:  1.24888001312
ID:  91 , Train Error:  3.72127466673e-14
ID:  91 , Test Error:  1.13578449261
ID:  92 , Train Error:  8.63465139674e-15
ID:  92 , Test Error:  1.24697078622
ID:  93 , Train Error:  3.8728708934e-14
ID:  93 , Test Error:  1.07623950451
ID:  94 , Train Error:  7.64562527144e-15
ID:  94 , Test Error:  1.18329658167
ID:  95 , Train Error:  5.80562601159e-14
ID:  95 , Test Error:  1.18215582033
ID:  96 , Train Error:  1.33545016699e-14
ID:  96 , Test Error:  1.34873344354
ID:  97 , Train Error:  5.328251752e-15
ID:  97 , Test Error:  1.10680855188
ID:  98 , Train Error:  1.03311886046e-14
ID:  98 , Test Error:  1.3032670891
ID:  99 , Train Error:  2.0614873107e-14
ID:  99 , Test Error:  1.06732590515
ID:  100 , Train Error:  6.75166400722e-14
ID:  100 , Test Error:  1.25245867657
ID:  101 , Train Error:  3.08506335827e-14
ID:  101 , Test Error:  1.34271098673
ID:  102 , Train Error:  4.98361131179e-14
ID:  102 , Test Error:  1.27055784488
ID:  103 , Train Error:  2.05407434017e-14
ID:  103 , Test Error:  1.25638546729
ID:  104 , Train Error:  5.61468765942e-14
ID:  104 , Test Error:  1.15217977065
ID:  105 , Train Error:  3.0823080793e-14
ID:  105 , Test Error:  1.22403532614
ID:  106 , Train Error:  2.20724574167e-14
ID:  106 , Test Error:  1.17799948369
ID:  107 , Train Error:  3.65289641206e-14
ID:  107 , Test Error:  1.1731499196
ID:  108 , Train Error:  1.82707715442e-14
ID:  108 , Test Error:  1.12541224489
ID:  109 , Train Error:  2.19150516366e-14
ID:  109 , Test Error:  1.2137322911
ID:  110 , Train Error:  3.53314881005e-14
ID:  110 , Test Error:  1.18699041449
ID:  111 , Train Error:  4.47083790688e-14
ID:  111 , Test Error:  1.12463289416
ID:  112 , Train Error:  1.59076143842e-14
ID:  112 , Test Error:  1.16264929549
ID:  113 , Train Error:  2.20675841795e-14
ID:  113 , Test Error:  1.32175745996
ID:  114 , Train Error:  3.06432015822e-14
ID:  114 , Test Error:  1.22435822979
ID:  115 , Train Error:  5.9606428807e-14
ID:  115 , Test Error:  1.19890329385
ID:  116 , Train Error:  2.19481910047e-14
ID:  116 , Test Error:  1.07735711866
ID:  117 , Train Error:  2.41176747899e-14
ID:  117 , Test Error:  1.17869330491
ID:  118 , Train Error:  3.36068018074e-14
ID:  118 , Test Error:  1.17502818456
ID:  119 , Train Error:  4.41690149012e-14
ID:  119 , Test Error:  1.2903651446
ID:  120 , Train Error:  8.51465097593e-14
ID:  120 , Test Error:  1.16078362339
ID:  121 , Train Error:  1.65063091136e-14
ID:  121 , Test Error:  1.11686336592
ID:  122 , Train Error:  9.13758372196e-15
ID:  122 , Test Error:  1.35688912894
ID:  123 , Train Error:  2.04334193211e-14
ID:  123 , Test Error:  1.18052391842
ID:  124 , Train Error:  2.86504443121e-14
ID:  124 , Test Error:  1.29473317246
ID:  125 , Train Error:  1.93197791853e-14
ID:  125 , Test Error:  1.05518003567
ID:  126 , Train Error:  1.88145723697e-14
ID:  126 , Test Error:  1.1475584722
ID:  127 , Train Error:  3.17362775886e-14
ID:  127 , Test Error:  1.16020273106
ID:  128 , Train Error:  4.93370420527e-14
ID:  128 , Test Error:  1.15881028583
ID:  129 , Train Error:  3.18230844429e-14
ID:  129 , Test Error:  1.17050481928
ID:  130 , Train Error:  2.65192841156e-14
ID:  130 , Test Error:  1.24524254449
ID:  131 , Train Error:  2.86192470076e-14
ID:  131 , Test Error:  1.12472049239
ID:  132 , Train Error:  1.94989266794e-14
ID:  132 , Test Error:  1.19047052476
ID:  133 , Train Error:  9.60553503055e-15
ID:  133 , Test Error:  1.08513960459
ID:  134 , Train Error:  4.37570930366e-14
ID:  134 , Test Error:  1.08228209193
ID:  135 , Train Error:  3.18748434043e-14
ID:  135 , Test Error:  1.03495606463
ID:  136 , Train Error:  3.05579496123e-14
ID:  136 , Test Error:  1.17858937903
ID:  137 , Train Error:  4.46569864906e-14
ID:  137 , Test Error:  1.03031955449
ID:  138 , Train Error:  6.69141616646e-14
ID:  138 , Test Error:  1.23079444723
ID:  139 , Train Error:  2.13488336782e-14
ID:  139 , Test Error:  1.103157313
ID:  140 , Train Error:  1.70526101133e-14
ID:  140 , Test Error:  1.17062274303
ID:  141 , Train Error:  1.95623158247e-14
ID:  141 , Test Error:  1.17997354766
ID:  142 , Train Error:  2.85859600297e-14
ID:  142 , Test Error:  1.24920539624
ID:  143 , Train Error:  4.50584127953e-14
ID:  143 , Test Error:  1.33990584194
ID:  144 , Train Error:  2.72646786873e-14
ID:  144 , Test Error:  1.24182511219
ID:  145 , Train Error:  2.2109401909e-14
ID:  145 , Test Error:  1.28618305783
ID:  146 , Train Error:  1.79435189068e-14
ID:  146 , Test Error:  1.18503215861
ID:  147 , Train Error:  5.97098980349e-14
ID:  147 , Test Error:  1.40707175935
ID:  148 , Train Error:  5.01705001068e-15
ID:  148 , Test Error:  1.23067046784
ID:  149 , Train Error:  3.56398310039e-14
ID:  149 , Test Error:  1.24964604995
ID:  150 , Train Error:  2.30566891742e-14
ID:  150 , Test Error:  1.19565496381
ID:  151 , Train Error:  3.65322914245e-14
ID:  151 , Test Error:  1.2163473926
ID:  152 , Train Error:  2.79959142062e-14
ID:  152 , Test Error:  1.18436100602
ID:  153 , Train Error:  7.05495470592e-14
ID:  153 , Test Error:  1.29991834877
ID:  154 , Train Error:  3.38364725326e-14
ID:  154 , Test Error:  1.38457102798
ID:  155 , Train Error:  8.20824144879e-14
ID:  155 , Test Error:  1.00652268503
ID:  156 , Train Error:  5.36620949267e-14
ID:  156 , Test Error:  1.27635761924
ID:  157 , Train Error:  2.485596839e-14
ID:  157 , Test Error:  1.08271046352
ID:  158 , Train Error:  1.38130921106e-14
ID:  158 , Test Error:  1.15456230852
ID:  159 , Train Error:  2.97075107391e-14
ID:  159 , Test Error:  0.986663960209
ID:  160 , Train Error:  7.87150559658e-15
ID:  160 , Test Error:  1.15700944953
ID:  161 , Train Error:  2.72400992983e-14
ID:  161 , Test Error:  1.17583059479
ID:  162 , Train Error:  7.1875387053e-15
ID:  162 , Test Error:  1.25065597071
ID:  163 , Train Error:  2.55729755295e-14
ID:  163 , Test Error:  1.14162259302
ID:  164 , Train Error:  3.77716175912e-14
ID:  164 , Test Error:  1.16104900612
ID:  165 , Train Error:  2.26723390037e-14
ID:  165 , Test Error:  1.17025188041
ID:  166 , Train Error:  2.14244191167e-14
ID:  166 , Test Error:  1.13010059003
ID:  167 , Train Error:  3.87831317856e-14
ID:  167 , Test Error:  1.18402456005
ID:  168 , Train Error:  6.44020997971e-15
ID:  168 , Test Error:  1.31415679562
ID:  169 , Train Error:  6.78253676595e-14
ID:  169 , Test Error:  1.1629273768
ID:  170 , Train Error:  6.48183435594e-14
ID:  170 , Test Error:  1.3043270878
ID:  171 , Train Error:  2.61984123288e-14
ID:  171 , Test Error:  1.16796914128
ID:  172 , Train Error:  8.62029768042e-15
ID:  172 , Test Error:  1.20214999383
ID:  173 , Train Error:  2.29323704223e-14
ID:  173 , Test Error:  1.25989958552
ID:  174 , Train Error:  3.86331554931e-14
ID:  174 , Test Error:  1.17527058308
ID:  175 , Train Error:  3.18677480129e-14
ID:  175 , Test Error:  1.33477276889
ID:  176 , Train Error:  2.48892458929e-14
ID:  176 , Test Error:  1.2553872251
ID:  177 , Train Error:  4.74689391241e-14
ID:  177 , Test Error:  1.12068620104
ID:  178 , Train Error:  7.11100686597e-14
ID:  178 , Test Error:  1.1592836045
ID:  179 , Train Error:  1.9076325585e-14
ID:  179 , Test Error:  1.07807784452
ID:  180 , Train Error:  2.71043440412e-14
ID:  180 , Test Error:  1.27367084643
ID:  181 , Train Error:  3.25501349322e-14
ID:  181 , Test Error:  1.17941841942
ID:  182 , Train Error:  3.55382029051e-14
ID:  182 , Test Error:  1.19076619859
ID:  183 , Train Error:  2.97108705745e-14
ID:  183 , Test Error:  1.24867991771
ID:  184 , Train Error:  2.22383502744e-14
ID:  184 , Test Error:  1.31055227723
ID:  185 , Train Error:  4.90520939508e-14
ID:  185 , Test Error:  1.21821154024
ID:  186 , Train Error:  8.85220191718e-15
ID:  186 , Test Error:  1.301645184
ID:  187 , Train Error:  4.43908415202e-14
ID:  187 , Test Error:  1.28870978564
ID:  188 , Train Error:  5.55901074338e-14
ID:  188 , Test Error:  1.27900236062
ID:  189 , Train Error:  7.99920395058e-14
ID:  189 , Test Error:  1.17461096241
ID:  190 , Train Error:  3.80021105165e-14
ID:  190 , Test Error:  1.43023700235
ID:  191 , Train Error:  1.2809682532e-14
ID:  191 , Test Error:  1.16805957617
ID:  192 , Train Error:  1.13188944367e-14
ID:  192 , Test Error:  1.32416742332
ID:  193 , Train Error:  2.10241942978e-14
ID:  193 , Test Error:  1.12225624357
ID:  194 , Train Error:  2.38915294469e-14
ID:  194 , Test Error:  1.1926290843
ID:  195 , Train Error:  2.16405535522e-14
ID:  195 , Test Error:  1.20217815729
ID:  196 , Train Error:  2.54386924103e-14
ID:  196 , Test Error:  1.27469730401
ID:  197 , Train Error:  5.61591122508e-14
ID:  197 , Test Error:  1.21613396849
ID:  198 , Train Error:  7.92554205553e-15
ID:  198 , Test Error:  1.22150905243
ID:  199 , Train Error:  7.47582315992e-14
ID:  199 , Test Error:  1.12298457169
ID:  200 , Train Error:  2.29594505153e-14
ID:  200 , Test Error:  1.22556793832
ID:  201 , Train Error:  1.96265680769e-14
ID:  201 , Test Error:  1.43769290502
ID:  202 , Train Error:  4.89008338754e-14
ID:  202 , Test Error:  1.20059180241
ID:  203 , Train Error:  3.54638286564e-14
ID:  203 , Test Error:  1.25245689444
ID:  204 , Train Error:  1.53787926897e-14
ID:  204 , Test Error:  1.17359098402
ID:  205 , Train Error:  1.06166514285e-14
ID:  205 , Test Error:  1.1629157901
ID:  206 , Train Error:  4.85685445673e-14
ID:  206 , Test Error:  1.12755715726
ID:  207 , Train Error:  2.25065047711e-14
ID:  207 , Test Error:  1.21430800933
ID:  208 , Train Error:  4.44293156649e-14
ID:  208 , Test Error:  1.24271541886
ID:  209 , Train Error:  2.18140779878e-14
ID:  209 , Test Error:  1.30489303429
ID:  210 , Train Error:  8.22139803298e-14
ID:  210 , Test Error:  1.17865712231
ID:  211 , Train Error:  1.7096877693e-14
ID:  211 , Test Error:  1.23247645006
ID:  212 , Train Error:  4.42959024603e-14
ID:  212 , Test Error:  1.21810800744
ID:  213 , Train Error:  2.59383227473e-14
ID:  213 , Test Error:  1.21026620174
ID:  214 , Train Error:  3.15432499922e-14
ID:  214 , Test Error:  1.32874338094
ID:  215 , Train Error:  2.84719640735e-14
ID:  215 , Test Error:  1.21682249029
ID:  216 , Train Error:  1.97334902517e-14
ID:  216 , Test Error:  1.22154022762
ID:  217 , Train Error:  3.11409851344e-14
ID:  217 , Test Error:  1.30280270899
ID:  218 , Train Error:  3.93389103018e-14
ID:  218 , Test Error:  1.27172399736
ID:  219 , Train Error:  1.04383641842e-14
ID:  219 , Test Error:  1.19969625627
ID:  220 , Train Error:  3.3792044958e-14
ID:  220 , Test Error:  1.32425141385
ID:  221 , Train Error:  5.75188312342e-14
ID:  221 , Test Error:  1.33109502808
ID:  222 , Train Error:  1.92048899624e-14
ID:  222 , Test Error:  1.41657522967
ID:  223 , Train Error:  1.55688956035e-14
ID:  223 , Test Error:  1.10316203803
ID:  224 , Train Error:  3.47638010653e-14
ID:  224 , Test Error:  1.18702588057
ID:  225 , Train Error:  6.02707495095e-14
ID:  225 , Test Error:  1.28709870016
ID:  226 , Train Error:  4.71976845553e-14
ID:  226 , Test Error:  1.18767116598
ID:  227 , Train Error:  2.47046684307e-14
ID:  227 , Test Error:  1.23261390896
ID:  228 , Train Error:  5.94865021002e-14
ID:  228 , Test Error:  1.3037854988
ID:  229 , Train Error:  1.34508700713e-14
ID:  229 , Test Error:  1.29210347208
ID:  230 , Train Error:  6.22441122209e-15
ID:  230 , Test Error:  1.26853128903
ID:  231 , Train Error:  2.13549091334e-14
ID:  231 , Test Error:  1.13538103014
ID:  232 , Train Error:  3.26900320175e-14
ID:  232 , Test Error:  1.26731628027
ID:  233 , Train Error:  7.21636175394e-14
ID:  233 , Test Error:  1.20412964957
ID:  234 , Train Error:  1.76223269292e-14
ID:  234 , Test Error:  1.21205798311
ID:  235 , Train Error:  2.9230299204e-14
ID:  235 , Test Error:  1.24252436221
ID:  236 , Train Error:  8.69554682526e-14
ID:  236 , Test Error:  1.37165338305
ID:  237 , Train Error:  2.01607391128e-14
ID:  237 , Test Error:  1.29461459128
ID:  238 , Train Error:  3.37297699558e-14
ID:  238 , Test Error:  1.22856344944
ID:  239 , Train Error:  2.22427020479e-14
ID:  239 , Test Error:  1.05917366475
ID:  240 , Train Error:  2.30680328087e-14
ID:  240 , Test Error:  1.25175471349
ID:  241 , Train Error:  3.966689911e-14
ID:  241 , Test Error:  1.22255933115
ID:  242 , Train Error:  1.93898030266e-14
ID:  242 , Test Error:  1.31714198023
ID:  243 , Train Error:  2.23753456355e-14
ID:  243 , Test Error:  1.16426847081
ID:  244 , Train Error:  5.36700737475e-14
ID:  244 , Test Error:  1.22847310888
ID:  245 , Train Error:  5.92834769193e-14
ID:  245 , Test Error:  1.31325058357
ID:  246 , Train Error:  1.90923495752e-14
ID:  246 , Test Error:  1.34744118285
ID:  247 , Train Error:  3.62372735987e-14
ID:  247 , Test Error:  1.28181701203
ID:  248 , Train Error:  1.74737538845e-14
ID:  248 , Test Error:  1.25555730212
ID:  249 , Train Error:  2.25594154455e-14
ID:  249 , Test Error:  1.09594806196
ID:  250 , Train Error:  5.60085407278e-14
ID:  250 , Test Error:  1.23043694062
ID:  251 , Train Error:  4.08863396515e-14
ID:  251 , Test Error:  0.984055364645
ID:  252 , Train Error:  1.75478988715e-14
ID:  252 , Test Error:  1.19370279122
ID:  253 , Train Error:  6.01161021682e-14
ID:  253 , Test Error:  1.18654511903
ID:  254 , Train Error:  3.98420964817e-14
ID:  254 , Test Error:  1.15444840691
ID:  255 , Train Error:  3.05369541197e-14
ID:  255 , Test Error:  1.12866345884
ID:  256 , Train Error:  4.80166073488e-14
ID:  256 , Test Error:  1.27560388776
ID:  257 , Train Error:  3.08371637286e-14
ID:  257 , Test Error:  1.20977924495
ID:  258 , Train Error:  1.63820305276e-14
ID:  258 , Test Error:  1.18224570898
ID:  259 , Train Error:  3.06909903503e-14
ID:  259 , Test Error:  1.33529261847
ID:  260 , Train Error:  7.76674294919e-14
ID:  260 , Test Error:  1.32362615542
ID:  261 , Train Error:  8.98404982015e-15
ID:  261 , Test Error:  1.24710904375
ID:  262 , Train Error:  1.44466362498e-14
ID:  262 , Test Error:  1.05907688357
ID:  263 , Train Error:  1.96352561933e-14
ID:  263 , Test Error:  1.20140012703
ID:  264 , Train Error:  1.67584618574e-14
ID:  264 , Test Error:  1.36751262074
ID:  265 , Train Error:  3.22464406927e-14
ID:  265 , Test Error:  1.14219808614
ID:  266 , Train Error:  7.33114204896e-14
ID:  266 , Test Error:  1.25702118621
ID:  267 , Train Error:  2.01378848935e-14
ID:  267 , Test Error:  1.30539676931
ID:  268 , Train Error:  3.66365208753e-14
ID:  268 , Test Error:  1.26416413116
ID:  269 , Train Error:  2.31238293437e-14
ID:  269 , Test Error:  1.26929846729
ID:  270 , Train Error:  8.75500148966e-15
ID:  270 , Test Error:  1.28090036643
ID:  271 , Train Error:  3.41142863618e-14
ID:  271 , Test Error:  1.12285430786
ID:  272 , Train Error:  2.56441134754e-14
ID:  272 , Test Error:  1.21397299167
ID:  273 , Train Error:  5.65075761001e-14
ID:  273 , Test Error:  1.3493520138
ID:  274 , Train Error:  3.22811523791e-14
ID:  274 , Test Error:  1.30072018796
ID:  275 , Train Error:  2.15973332649e-14
ID:  275 , Test Error:  1.27571703618
ID:  276 , Train Error:  4.0284708421e-14
ID:  276 , Test Error:  1.21167350444
ID:  277 , Train Error:  2.69382452934e-14
ID:  277 , Test Error:  1.22868513791
ID:  278 , Train Error:  5.00493662818e-14
ID:  278 , Test Error:  1.18403974173
ID:  279 , Train Error:  7.72102636979e-15
ID:  279 , Test Error:  1.18969548834
ID:  280 , Train Error:  1.30744181585e-14
ID:  280 , Test Error:  1.13319300655
ID:  281 , Train Error:  2.9013653169e-14
ID:  281 , Test Error:  1.26549545415
ID:  282 , Train Error:  2.17608040427e-14
ID:  282 , Test Error:  1.26160139533
ID:  283 , Train Error:  2.05231453372e-14
ID:  283 , Test Error:  1.04572413821
ID:  284 , Train Error:  3.23900859089e-14
ID:  284 , Test Error:  1.04097427769
ID:  285 , Train Error:  1.10305888432e-14
ID:  285 , Test Error:  1.33158528818
ID:  286 , Train Error:  4.76171515322e-14
ID:  286 , Test Error:  1.22030564578
ID:  287 , Train Error:  2.53003501019e-14
ID:  287 , Test Error:  1.24924806678
ID:  288 , Train Error:  3.84658227618e-14
ID:  288 , Test Error:  1.21167714
ID:  289 , Train Error:  1.80363499756e-14
ID:  289 , Test Error:  1.30224675502
ID:  290 , Train Error:  1.57879849233e-14
ID:  290 , Test Error:  1.16706360485
ID:  291 , Train Error:  2.22442687623e-14
ID:  291 , Test Error:  1.1931693492
ID:  292 , Train Error:  3.31159524507e-14
ID:  292 , Test Error:  1.0579790122
ID:  293 , Train Error:  2.07972491138e-14
ID:  293 , Test Error:  1.28258240966
ID:  294 , Train Error:  1.75465833164e-14
ID:  294 , Test Error:  1.21153791089
ID:  295 , Train Error:  3.23399047674e-14
ID:  295 , Test Error:  1.28975238838
ID:  296 , Train Error:  8.59872144071e-15
ID:  296 , Test Error:  1.0634161156
ID:  297 , Train Error:  2.76333549362e-14
ID:  297 , Test Error:  0.992041508717
ID:  298 , Train Error:  2.25487194532e-14
ID:  298 , Test Error:  1.22529556813
ID:  299 , Train Error:  3.10334210361e-14
ID:  299 , Test Error:  1.18057860653
ID:  300 , Train Error:  7.41051077689e-15
ID:  300 , Test Error:  1.18773173205
ID:  301 , Train Error:  6.20518415996e-14
ID:  301 , Test Error:  1.37172394432
ID:  302 , Train Error:  4.38153988894e-14
ID:  302 , Test Error:  1.17562538857
ID:  303 , Train Error:  3.2214896187e-14
ID:  303 , Test Error:  1.18240354543
ID:  304 , Train Error:  1.37677938157e-14
ID:  304 , Test Error:  1.30370529241
ID:  305 , Train Error:  4.21755841762e-14
ID:  305 , Test Error:  1.23990537641
ID:  306 , Train Error:  5.55457777356e-14
ID:  306 , Test Error:  1.22428805882
ID:  307 , Train Error:  5.50903919747e-14
ID:  307 , Test Error:  1.31416601429
ID:  308 , Train Error:  2.58437068974e-14
ID:  308 , Test Error:  1.22994610503
ID:  309 , Train Error:  2.80698730304e-14
ID:  309 , Test Error:  1.1749236028
ID:  310 , Train Error:  6.75890714803e-14
ID:  310 , Test Error:  1.27400268654
ID:  311 , Train Error:  1.47238123196e-14
ID:  311 , Test Error:  1.35783887171
ID:  312 , Train Error:  5.21191406944e-14
ID:  312 , Test Error:  1.26562428853
ID:  313 , Train Error:  1.43900682214e-14
ID:  313 , Test Error:  1.21864222893
ID:  314 , Train Error:  2.64037852713e-14
ID:  314 , Test Error:  1.27509611213
ID:  315 , Train Error:  3.84382632295e-14
ID:  315 , Test Error:  1.06627683754
ID:  316 , Train Error:  8.74607293363e-14
ID:  316 , Test Error:  1.21609818857
ID:  317 , Train Error:  1.21663155281e-14
ID:  317 , Test Error:  1.24221398204
ID:  318 , Train Error:  3.40747076917e-14
ID:  318 , Test Error:  1.22180809186
ID:  319 , Train Error:  6.40357452833e-14
ID:  319 , Test Error:  1.25062725926
ID:  320 , Train Error:  9.62716803077e-14
ID:  320 , Test Error:  1.27933258728
ID:  321 , Train Error:  2.21112285656e-14
ID:  321 , Test Error:  1.17349233822
ID:  322 , Train Error:  3.14009628737e-14
ID:  322 , Test Error:  1.10689186642
ID:  323 , Train Error:  3.58700802082e-14
ID:  323 , Test Error:  1.36389965849
ID:  324 , Train Error:  2.15553671807e-14
ID:  324 , Test Error:  1.18648280613
ID:  325 , Train Error:  1.09335387502e-14
ID:  325 , Test Error:  1.12446331699
ID:  326 , Train Error:  1.76918060909e-14
ID:  326 , Test Error:  1.22905295091
ID:  327 , Train Error:  2.52033819083e-14
ID:  327 , Test Error:  1.05905987263
ID:  328 , Train Error:  1.56733706596e-14
ID:  328 , Test Error:  1.19346763528
ID:  329 , Train Error:  1.23663849166e-14
ID:  329 , Test Error:  1.23200116118
ID:  330 , Train Error:  2.49632573603e-14
ID:  330 , Test Error:  1.12737648511
ID:  331 , Train Error:  1.39774564799e-14
ID:  331 , Test Error:  1.22499723355
ID:  332 , Train Error:  2.39251551979e-14
ID:  332 , Test Error:  1.18644232399
ID:  333 , Train Error:  2.1811884016e-14
ID:  333 , Test Error:  1.09956157724
ID:  334 , Train Error:  1.95906783526e-14
ID:  334 , Test Error:  1.12279837891
ID:  335 , Train Error:  3.55302168999e-14
ID:  335 , Test Error:  1.30895750187
ID:  336 , Train Error:  2.83756287783e-14
ID:  336 , Test Error:  1.15093965894
ID:  337 , Train Error:  5.68453014909e-14
ID:  337 , Test Error:  1.07819186926
ID:  338 , Train Error:  2.58376288155e-14
ID:  338 , Test Error:  1.2655912285
ID:  339 , Train Error:  8.33149166577e-14
ID:  339 , Test Error:  1.05916347236
ID:  340 , Train Error:  2.8112784426e-14
ID:  340 , Test Error:  1.20012500575
ID:  341 , Train Error:  5.06878972181e-14
ID:  341 , Test Error:  1.13645094437
ID:  342 , Train Error:  2.05712919828e-14
ID:  342 , Test Error:  1.14613397225
ID:  343 , Train Error:  4.64765508564e-14
ID:  343 , Test Error:  1.29599890428
ID:  344 , Train Error:  5.41159263681e-14
ID:  344 , Test Error:  1.15784502838
ID:  345 , Train Error:  5.52550411313e-14
ID:  345 , Test Error:  1.24296923504
ID:  346 , Train Error:  3.50476865358e-14
ID:  346 , Test Error:  1.2065432487
ID:  347 , Train Error:  4.87542640208e-14
ID:  347 , Test Error:  1.30457231044
ID:  348 , Train Error:  4.29844561581e-14
ID:  348 , Test Error:  1.25051472276
ID:  349 , Train Error:  4.365669629e-14
ID:  349 , Test Error:  1.24046661036
ID:  350 , Train Error:  1.43397550692e-14
ID:  350 , Test Error:  1.34479331412
ID:  351 , Train Error:  2.98317907212e-14
ID:  351 , Test Error:  1.12228836374
ID:  352 , Train Error:  2.28881728536e-14
ID:  352 , Test Error:  1.37442953421
ID:  353 , Train Error:  3.28429124119e-14
ID:  353 , Test Error:  1.3100469484
ID:  354 , Train Error:  2.21772188249e-14
ID:  354 , Test Error:  1.25594690802
ID:  355 , Train Error:  1.74211133668e-14
ID:  355 , Test Error:  1.24921523922
ID:  356 , Train Error:  7.15740426445e-14
ID:  356 , Test Error:  1.22926111398
ID:  357 , Train Error:  8.4612854043e-14
ID:  357 , Test Error:  1.1748281559
ID:  358 , Train Error:  1.63707329073e-14
ID:  358 , Test Error:  1.33422917688
ID:  359 , Train Error:  4.8563800016e-14
ID:  359 , Test Error:  1.22725398746
ID:  360 , Train Error:  4.29096306314e-14
ID:  360 , Test Error:  1.18665225185
ID:  361 , Train Error:  3.46220924311e-14
ID:  361 , Test Error:  1.22561973259
ID:  362 , Train Error:  2.33181053691e-14
ID:  362 , Test Error:  1.19646346252
ID:  363 , Train Error:  1.2650772295e-14
ID:  363 , Test Error:  1.16274816046
ID:  364 , Train Error:  1.30658919904e-14
ID:  364 , Test Error:  1.12849546915
ID:  365 , Train Error:  1.59825529244e-14
ID:  365 , Test Error:  1.16279341138
ID:  366 , Train Error:  3.20147281333e-14
ID:  366 , Test Error:  1.16725381778
ID:  367 , Train Error:  1.63410150042e-14
ID:  367 , Test Error:  1.27436855701
ID:  368 , Train Error:  1.62421969012e-14
ID:  368 , Test Error:  1.18616299828
ID:  369 , Train Error:  3.77863356948e-14
ID:  369 , Test Error:  1.39215997925
ID:  370 , Train Error:  2.34974293246e-14
ID:  370 , Test Error:  1.28713499157
ID:  371 , Train Error:  2.40840439578e-14
ID:  371 , Test Error:  1.15963778366
ID:  372 , Train Error:  1.168786548e-14
ID:  372 , Test Error:  1.19456460703
ID:  373 , Train Error:  3.14539229174e-14
ID:  373 , Test Error:  1.34636021439
ID:  374 , Train Error:  6.57783807014e-14
ID:  374 , Test Error:  1.25637186709
ID:  375 , Train Error:  1.9102835483e-14
ID:  375 , Test Error:  1.26218662003
ID:  376 , Train Error:  2.00970712354e-14
ID:  376 , Test Error:  1.05571841904
ID:  377 , Train Error:  5.79541320311e-14
ID:  377 , Test Error:  1.11949488482
ID:  378 , Train Error:  4.01355747055e-14
ID:  378 , Test Error:  1.22177308079
ID:  379 , Train Error:  2.4255490936e-14
ID:  379 , Test Error:  1.27720057474
ID:  380 , Train Error:  6.66226569032e-14
ID:  380 , Test Error:  1.28174695641
ID:  381 , Train Error:  2.07234764455e-14
ID:  381 , Test Error:  1.18429476267
ID:  382 , Train Error:  2.60038073005e-14
ID:  382 , Test Error:  1.14963074303
ID:  383 , Train Error:  4.33750877114e-14
ID:  383 , Test Error:  1.20868036846
ID:  384 , Train Error:  5.17215812251e-14
ID:  384 , Test Error:  1.22221667839
ID:  385 , Train Error:  4.59544460322e-14
ID:  385 , Test Error:  1.20994355739
ID:  386 , Train Error:  2.99817117701e-14
ID:  386 , Test Error:  1.21729701358
ID:  387 , Train Error:  2.37065308818e-14
ID:  387 , Test Error:  1.28065884881
ID:  388 , Train Error:  2.93233498138e-14
ID:  388 , Test Error:  1.1268714445
ID:  389 , Train Error:  3.0818731289e-14
ID:  389 , Test Error:  1.22847070204
ID:  390 , Train Error:  7.55640927984e-14
ID:  390 , Test Error:  1.36706874607
ID:  391 , Train Error:  5.17351481851e-14
ID:  391 , Test Error:  1.20359257445
ID:  392 , Train Error:  1.72007449732e-14
ID:  392 , Test Error:  1.14664601098
ID:  393 , Train Error:  1.30701834352e-14
ID:  393 , Test Error:  1.06783471752
ID:  394 , Train Error:  5.36090991307e-14
ID:  394 , Test Error:  1.20869959557
ID:  395 , Train Error:  2.15965520076e-14
ID:  395 , Test Error:  1.25133386337
ID:  396 , Train Error:  2.34598619244e-14
ID:  396 , Test Error:  1.14275056387
ID:  397 , Train Error:  6.25008403288e-14
ID:  397 , Test Error:  1.24664060395
ID:  398 , Train Error:  4.25824247709e-14
ID:  398 , Test Error:  1.40122126258
ID:  399 , Train Error:  4.5898357292e-14
ID:  399 , Test Error:  1.29099694366
ID:  400 , Train Error:  1.99878912214e-14
ID:  400 , Test Error:  1.27831151677
ID:  401 , Train Error:  1.96675804244e-14
ID:  401 , Test Error:  1.1659053255
ID:  402 , Train Error:  5.14196319944e-14
ID:  402 , Test Error:  1.4142789513
ID:  403 , Train Error:  5.34621615784e-14
ID:  403 , Test Error:  1.39195554153
ID:  404 , Train Error:  9.97730825188e-15
ID:  404 , Test Error:  1.1995613201
ID:  405 , Train Error:  8.3462343814e-15
ID:  405 , Test Error:  1.09663594531
ID:  406 , Train Error:  1.87293597596e-14
ID:  406 , Test Error:  1.28721013525
ID:  407 , Train Error:  5.42698946271e-14
ID:  407 , Test Error:  1.23677952454
ID:  408 , Train Error:  2.28176939015e-14
ID:  408 , Test Error:  1.19439111072
ID:  409 , Train Error:  5.24864721922e-14
ID:  409 , Test Error:  1.28969622993
ID:  410 , Train Error:  1.91131874835e-14
ID:  410 , Test Error:  1.10770095666
ID:  411 , Train Error:  2.09548965816e-14
ID:  411 , Test Error:  1.13216438351
ID:  412 , Train Error:  7.85124955028e-15
ID:  412 , Test Error:  1.09625856381
ID:  413 , Train Error:  2.44761241956e-14
ID:  413 , Test Error:  1.19547142273
ID:  414 , Train Error:  2.79998194525e-14
ID:  414 , Test Error:  1.33150084821
ID:  415 , Train Error:  2.13644130618e-14
ID:  415 , Test Error:  1.2480551379
ID:  416 , Train Error:  1.37279770987e-14
ID:  416 , Test Error:  1.26316436551
ID:  417 , Train Error:  2.2501627965e-14
ID:  417 , Test Error:  1.18524653884
ID:  418 , Train Error:  3.11327695208e-14
ID:  418 , Test Error:  1.1962913021
ID:  419 , Train Error:  1.19082547995e-14
ID:  419 , Test Error:  1.23579364258
ID:  420 , Train Error:  7.41440540634e-14
ID:  420 , Test Error:  1.12926502581
ID:  421 , Train Error:  8.93904423985e-15
ID:  421 , Test Error:  1.29222777647
ID:  422 , Train Error:  3.23074091169e-14
ID:  422 , Test Error:  1.34308719104
ID:  423 , Train Error:  2.7958431429e-14
ID:  423 , Test Error:  1.17150578271
ID:  424 , Train Error:  3.47859810925e-14
ID:  424 , Test Error:  1.29880487764
ID:  425 , Train Error:  5.39169619833e-14
ID:  425 , Test Error:  1.09613176915
ID:  426 , Train Error:  2.7904211268e-14
ID:  426 , Test Error:  1.20773857027
ID:  427 , Train Error:  1.77142244182e-14
ID:  427 , Test Error:  1.15049761092
ID:  428 , Train Error:  1.50320861395e-14
ID:  428 , Test Error:  1.25827290562
ID:  429 , Train Error:  8.01700176946e-14
ID:  429 , Test Error:  1.35083896424
ID:  430 , Train Error:  3.87064933926e-14
ID:  430 , Test Error:  1.08386384253
ID:  431 , Train Error:  2.21027636533e-14
ID:  431 , Test Error:  1.32112708783
ID:  432 , Train Error:  1.59607514764e-14
ID:  432 , Test Error:  1.07271818866
ID:  433 , Train Error:  1.90130845773e-14
ID:  433 , Test Error:  1.05100496721
ID:  434 , Train Error:  3.3302260601e-14
ID:  434 , Test Error:  1.27228962067
ID:  435 , Train Error:  2.78849755086e-14
ID:  435 , Test Error:  1.27537888918
ID:  436 , Train Error:  3.83424875927e-14
ID:  436 , Test Error:  1.09769711818
ID:  437 , Train Error:  1.22311200967e-14
ID:  437 , Test Error:  1.24228067518
ID:  438 , Train Error:  5.85364062025e-14
ID:  438 , Test Error:  1.27045297172
ID:  439 , Train Error:  9.9134559635e-15
ID:  439 , Test Error:  1.24454872573
ID:  440 , Train Error:  2.87606997146e-14
ID:  440 , Test Error:  1.09210243011
ID:  441 , Train Error:  3.49591521668e-14
ID:  441 , Test Error:  1.10648742867
ID:  442 , Train Error:  3.08011491651e-14
ID:  442 , Test Error:  1.27061412905
ID:  443 , Train Error:  1.94901022945e-14
ID:  443 , Test Error:  1.2078956088
ID:  444 , Train Error:  1.73772163422e-14
ID:  444 , Test Error:  1.35230043057
ID:  445 , Train Error:  3.91588761769e-14
ID:  445 , Test Error:  1.28791566653
ID:  446 , Train Error:  3.63911202878e-14
ID:  446 , Test Error:  1.18340526705
ID:  447 , Train Error:  1.99885061846e-14
ID:  447 , Test Error:  1.13614055203
ID:  448 , Train Error:  1.98979823885e-14
ID:  448 , Test Error:  1.25591337651
ID:  449 , Train Error:  1.69777304127e-14
ID:  449 , Test Error:  1.02648645379
ID:  450 , Train Error:  2.96935544037e-14
ID:  450 , Test Error:  1.1487240819
ID:  451 , Train Error:  8.18335086393e-15
ID:  451 , Test Error:  1.33119293676
ID:  452 , Train Error:  3.71119580758e-14
ID:  452 , Test Error:  1.13069419616
ID:  453 , Train Error:  4.05364217185e-14
ID:  453 , Test Error:  1.14692364574
ID:  454 , Train Error:  4.18791894055e-14
ID:  454 , Test Error:  1.22199677465
ID:  455 , Train Error:  2.69764816681e-14
ID:  455 , Test Error:  1.15416493611
ID:  456 , Train Error:  3.22306688805e-14
ID:  456 , Test Error:  1.24924571686
ID:  457 , Train Error:  2.25862379929e-14
ID:  457 , Test Error:  1.17087925481
ID:  458 , Train Error:  1.79159853571e-14
ID:  458 , Test Error:  1.19495122668
ID:  459 , Train Error:  6.65961905824e-15
ID:  459 , Test Error:  1.2114772903
ID:  460 , Train Error:  5.55842835898e-14
ID:  460 , Test Error:  1.0902778839
ID:  461 , Train Error:  5.56892727139e-14
ID:  461 , Test Error:  1.23364039465
ID:  462 , Train Error:  1.44720249456e-14
ID:  462 , Test Error:  1.39104631425
ID:  463 , Train Error:  1.88841984251e-14
ID:  463 , Test Error:  1.08468589374
ID:  464 , Train Error:  7.65417082155e-14
ID:  464 , Test Error:  1.27224288342
ID:  465 , Train Error:  2.50614090256e-14
ID:  465 , Test Error:  1.310673955
ID:  466 , Train Error:  9.37724242614e-15
ID:  466 , Test Error:  1.2932791383
ID:  467 , Train Error:  3.30520296212e-14
ID:  467 , Test Error:  1.42709796774
ID:  468 , Train Error:  2.17663310033e-14
ID:  468 , Test Error:  1.32614542307
ID:  469 , Train Error:  3.33597582858e-14
ID:  469 , Test Error:  1.26456912
ID:  470 , Train Error:  2.06151928457e-14
ID:  470 , Test Error:  1.27952582912
ID:  471 , Train Error:  1.4803475797e-14
ID:  471 , Test Error:  1.174092657
ID:  472 , Train Error:  1.83814601004e-14
ID:  472 , Test Error:  1.42658253753
ID:  473 , Train Error:  4.46668736104e-14
ID:  473 , Test Error:  1.25327374109
ID:  474 , Train Error:  1.35680347763e-14
ID:  474 , Test Error:  1.19513594303
ID:  475 , Train Error:  2.76711796412e-14
ID:  475 , Test Error:  1.18117396726
ID:  476 , Train Error:  3.41700909373e-14
ID:  476 , Test Error:  1.09822075949
ID:  477 , Train Error:  3.69702736186e-14
ID:  477 , Test Error:  1.20313802445
ID:  478 , Train Error:  1.77321213054e-14
ID:  478 , Test Error:  1.16212703005
ID:  479 , Train Error:  4.85588513539e-14
ID:  479 , Test Error:  1.1221076836
ID:  480 , Train Error:  4.81732696299e-14
ID:  480 , Test Error:  1.32799008647
ID:  481 , Train Error:  1.5923949228e-14
ID:  481 , Test Error:  1.24084312541
ID:  482 , Train Error:  2.56118243083e-14
ID:  482 , Test Error:  1.15617938399
ID:  483 , Train Error:  3.96207770985e-14
ID:  483 , Test Error:  1.37514281971
ID:  484 , Train Error:  1.2500290681e-14
ID:  484 , Test Error:  1.31277637088
ID:  485 , Train Error:  2.37841444464e-14
ID:  485 , Test Error:  1.25981666358
ID:  486 , Train Error:  4.23730231891e-14
ID:  486 , Test Error:  1.20632806422
ID:  487 , Train Error:  2.48507065557e-14
ID:  487 , Test Error:  1.25097212156
ID:  488 , Train Error:  1.80984165689e-14
ID:  488 , Test Error:  1.14033236439
ID:  489 , Train Error:  1.86968844506e-14
ID:  489 , Test Error:  1.13409143195
ID:  490 , Train Error:  2.17477202533e-14
ID:  490 , Test Error:  1.16738871156
ID:  491 , Train Error:  5.0767668275e-14
ID:  491 , Test Error:  1.12545208626
ID:  492 , Train Error:  1.7492664143e-14
ID:  492 , Test Error:  1.18961636532
ID:  493 , Train Error:  1.77573929987e-14
ID:  493 , Test Error:  1.2287068185
ID:  494 , Train Error:  2.14335389339e-14
ID:  494 , Test Error:  1.08369052382
ID:  495 , Train Error:  2.64820889805e-14
ID:  495 , Test Error:  1.16671266953
ID:  496 , Train Error:  2.95905538418e-14
ID:  496 , Test Error:  1.15015411523
ID:  497 , Train Error:  7.05939201367e-15
ID:  497 , Test Error:  1.13010274697
ID:  498 , Train Error:  2.39284300275e-14
ID:  498 , Test Error:  1.40071178428
ID:  499 , Train Error:  2.69939691125e-14
ID:  499 , Test Error:  1.24610598778
ID:  500 , Train Error:  4.64941668831e-14
ID:  500 , Test Error:  1.08803463893
ID:  501 , Train Error:  2.48170765035e-14
ID:  501 , Test Error:  1.14513706331
ID:  502 , Train Error:  1.70103967679e-14
ID:  502 , Test Error:  1.29354474579
ID:  503 , Train Error:  4.08052209836e-14
ID:  503 , Test Error:  1.09822643676
ID:  504 , Train Error:  2.85179923285e-14
ID:  504 , Test Error:  1.28365596105
ID:  505 , Train Error:  6.83851807634e-14
ID:  505 , Test Error:  1.21658619937
ID:  506 , Train Error:  3.48333125829e-14
ID:  506 , Test Error:  1.2457823524
ID:  507 , Train Error:  3.48568268881e-14
ID:  507 , Test Error:  1.17726431774
ID:  508 , Train Error:  1.48726819892e-14
ID:  508 , Test Error:  1.31218988159
ID:  509 , Train Error:  1.58145486441e-14
ID:  509 , Test Error:  1.18469071086
ID:  510 , Train Error:  2.04260614182e-14
ID:  510 , Test Error:  1.12047993707
ID:  511 , Train Error:  1.76297054225e-14
ID:  511 , Test Error:  1.0896105982
